DEFORGES-VATTIER-HERNOT
…
── Model ───────────────────────────────────────────────────────────────────────
Multinomial Regression Model Specification (classification)

Main Arguments:
  penalty = 0.00355648030622313
  mixture = 1

Computational engine: glmnet 

final_fit <- fit(final_model, data = data_train)

final_fit |> tidy()

# A tibble: 185 × 4
   class term         estimate penalty
   <chr> <chr>           <dbl>   <dbl>
 1 0     (Intercept)    3.76   0.00356
 2 0     AccXMean       0.947  0.00356
 3 0     AccXSD         9.81   0.00356
 4 0     AccXSkew      -1.50   0.00356
 5 0     AccXKurtosis   0      0.00356
 6 0     AccXMin        0      0.00356
 7 0     AccXMax        0      0.00356
 8 0     AccYMean      -1.56   0.00356
 9 0     AccYSD        -2.97   0.00356
10 0     AccYSkew      -0.0196 0.00356
# ℹ 175 more rows
…
── Model ───────────────────────────────────────────────────────────────────────
Multinomial Regression Model Specification (classification)

Main Arguments:
  penalty = 1e-10
  mixture = 0

Computational engine: glmnet 

final_fit <- fit(final_model, data = data_train)

final_fit |> tidy()

# A tibble: 185 × 4
   class term         estimate      penalty
   <chr> <chr>           <dbl>        <dbl>
 1 0     (Intercept)    5.38   0.0000000001
 2 0     AccXMean       2.95   0.0000000001
 3 0     AccXSD         5.64   0.0000000001
 4 0     AccXSkew      -0.568  0.0000000001
 5 0     AccXKurtosis  -0.0579 0.0000000001
 6 0     AccXMin        0      0.0000000001
 7 0     AccXMax        0      0.0000000001
 8 0     AccYMean      -1.30   0.0000000001
 9 0     AccYSD        -2.92   0.0000000001
10 0     AccYSkew      -0.113  0.0000000001
# ℹ 175 more rows
…
── Model ───────────────────────────────────────────────────────────────────────
Multinomial Regression Model Specification (classification)

Main Arguments:
  penalty = 0
  mixture = 0.444444444444444

Computational engine: glmnet 

final_fit <- fit(final_model, data = data_train)

final_fit |> tidy()

# A tibble: 185 × 4
   class term         estimate penalty
   <chr> <chr>           <dbl>   <dbl>
 1 0     (Intercept)    -3.90        0
 2 0     AccXMean        1.00        0
 3 0     AccXSD         34.0         0
 4 0     AccXSkew       -2.15        0
 5 0     AccXKurtosis    0.449       0
 6 0     AccXMin         0           0
 7 0     AccXMax         0           0
 8 0     AccYMean       -2.94        0
 9 0     AccYSD          0           0
10 0     AccYSkew        0           0
# ℹ 175 more rows
…
svmr_cv |>
collect_metrics()

# A tibble: 36 × 8
    cost rbf_sigma .metric  .estimator  mean     n std_err .config              
   <dbl>     <dbl> <chr>    <chr>      <dbl> <int>   <dbl> <chr>                
 1   0.1     0.001 accuracy multiclass 0.528     1      NA Preprocessor1_Model01
 2   1       0.001 accuracy multiclass 0.704     1      NA Preprocessor1_Model02
 3   5       0.001 accuracy multiclass 0.697     1      NA Preprocessor1_Model03
 4  10       0.001 accuracy multiclass 0.732     1      NA Preprocessor1_Model04
 5  15       0.001 accuracy multiclass 0.739     1      NA Preprocessor1_Model05
 6  20       0.001 accuracy multiclass 0.732     1      NA Preprocessor1_Model06
 7   0.1     0.01  accuracy multiclass 0.676     1      NA Preprocessor1_Model07
 8   1       0.01  accuracy multiclass 0.711     1      NA Preprocessor1_Model08
 9   5       0.01  accuracy multiclass 0.746     1      NA Preprocessor1_Model09
10  10       0.01  accuracy multiclass 0.732     1      NA Preprocessor1_Model10
# ℹ 26 more rows
…
